[api-updater (non-obsolete-error-filter)] 22/11/2021 0:53:23 : Starting C:/Program Files/Unity/Hub/Editor/2020.3.20f1/Editor/Data/Tools/ScriptUpdater/APIUpdater.NonObsoleteApiUpdaterDetector.exe
[api-updater (non-obsolete-error-filter)] 
----------------------------------
jit/startup time      : 759,7505ms
moved types parse time: 67ms
candidates parse time : 1ms
C# parse time         : 398ms
candidates check time : 46ms
console write time    : 0ms

[api-updater (non-obsolete-error-filter)] 22/11/2021 0:53:33 : Starting C:/Program Files/Unity/Hub/Editor/2020.3.20f1/Editor/Data/Tools/ScriptUpdater/APIUpdater.NonObsoleteApiUpdaterDetector.exe
[api-updater (non-obsolete-error-filter)] 
----------------------------------
jit/startup time      : 101,8814ms
moved types parse time: 64ms
candidates parse time : 1ms
C# parse time         : 226ms
candidates check time : 44ms
console write time    : 1ms

[api-updater (non-obsolete-error-filter)] 22/11/2021 0:54:33 : Starting C:/Program Files/Unity/Hub/Editor/2020.3.20f1/Editor/Data/Tools/ScriptUpdater/APIUpdater.NonObsoleteApiUpdaterDetector.exe
[api-updater (non-obsolete-error-filter)] 
----------------------------------
jit/startup time      : 96,2609ms
moved types parse time: 63ms
candidates parse time : 1ms
C# parse time         : 211ms
candidates check time : 39ms
console write time    : 0ms

[api-updater (non-obsolete-error-filter)] 22/11/2021 17:47:44 : Starting C:/Program Files/Unity/Hub/Editor/2020.3.20f1/Editor/Data/Tools/ScriptUpdater/APIUpdater.NonObsoleteApiUpdaterDetector.exe
[api-updater (non-obsolete-error-filter)] 
----------------------------------
jit/startup time      : 605,4171ms
moved types parse time: 61ms
candidates parse time : 1ms
C# parse time         : 266ms
candidates check time : 38ms
console write time    : 0ms

[api-updater (non-obsolete-error-filter)] 22/11/2021 17:47:51 : Starting C:/Program Files/Unity/Hub/Editor/2020.3.20f1/Editor/Data/Tools/ScriptUpdater/APIUpdater.NonObsoleteApiUpdaterDetector.exe
[api-updater (non-obsolete-error-filter)] 
----------------------------------
jit/startup time      : 100,4086ms
moved types parse time: 62ms
candidates parse time : 2ms
C# parse time         : 218ms
candidates check time : 40ms
console write time    : 0ms

