%YAML 1.1
%TAG !u! tag:unity3d.com,2011:
--- !u!162 &1
EditorUserSettings:
  m_ObjectHideFlags: 0
  serializedVersion: 4
  m_ConfigSettings:
    RecentlyUsedScenePath-0:
      value: 22424703114646680e0b0227036c7919181614063a2474707c67083debf42d
      flags: 0
    RecentlyUsedScenePath-1:
      value: 22424703114646680e0b0227036c731500121478623d28393930
      flags: 0
    RecentlyUsedScenePath-2:
      value: 22424703114646680e0b0227036c731500121479623d28393930
      flags: 0
    RecentlyUsedScenePath-3:
      value: 22424703114646680e0b0227036c7a1e02051d242d252f35233d127df7ee3d2cfb
      flags: 0
    RecentlyUsedScenePath-4:
      value: 22424703114646680e0b0227036c79191816146439262f2434
      flags: 0
    RecentlyUsedScenePath-5:
      value: 22424703114646680e0b0227036c79191816140d2d2627342267083debf42d
      flags: 0
    RecentlyUsedScenePath-6:
      value: 22424703114646680e0b0227036c7919181614063a24747e38271427fb
      flags: 0
    RecentlyUsedScenePath-7:
      value: 22424703114646680e0b0227036c79191816141a293a223929265326ece92021
      flags: 0
    RecentlyUsedScenePath-8:
      value: 22424703114646680e0b0227036c73150012147b623d28393930
      flags: 0
    RecentlyUsedScenePath-9:
      value: 22424703114646680e0b0227036c7e07171c1d6439262f2434
      flags: 0
    UnityRemoteDevice:
      value: 225f4d46245b0d4902070862342649191512
      flags: 0
    vcSharedLogLevel:
      value: 0d5e400f0650
      flags: 0
  m_VCAutomaticAdd: 1
  m_VCDebugCom: 0
  m_VCDebugCmd: 0
  m_VCDebugOut: 0
  m_SemanticMergeMode: 2
  m_VCShowFailedCheckout: 1
  m_VCOverwriteFailedCheckoutAssets: 1
  m_VCProjectOverlayIcons: 1
  m_VCHierarchyOverlayIcons: 1
  m_VCOtherOverlayIcons: 1
  m_VCAllowAsyncUpdate: 1
